<?xml version='1.0' encoding='UTF-8'?>
<!-- This file was generated by dvisvgm 1.15.1 -->
<svg height='37.1652pt' version='1.1' viewBox='-0.239051 -0.228101 395.017 37.1652' width='395.017pt' xmlns='http://www.w3.org/2000/svg' xmlns:xlink='http://www.w3.org/1999/xlink'>
<defs>
<path d='M15.1352 16.7372L16.5818 12.9116H16.2829C15.8167 14.1549 14.5494 14.9679 13.1746 15.3265C12.9235 15.3863 11.7519 15.6971 9.45654 15.6971H2.24757L8.33275 8.5599C8.41644 8.46426 8.44035 8.42839 8.44035 8.36862C8.44035 8.34471 8.44035 8.30884 8.35666 8.18929L2.78555 0.573848H9.33699C10.939 0.573848 12.0269 0.74122 12.1345 0.765131C12.7801 0.860772 13.8202 1.06401 14.7646 1.66177C15.0635 1.85305 15.8765 2.39103 16.2829 3.3594H16.5818L15.1352 0H1.00423C0.729265 0 0.71731 0.0119552 0.681445 0.0836862C0.669489 0.119552 0.669489 0.3467 0.669489 0.478207L6.99377 9.13375L0.800996 16.3905C0.681445 16.534 0.681445 16.5938 0.681445 16.6057C0.681445 16.7372 0.789041 16.7372 1.00423 16.7372H15.1352Z' id='g0-88'/>
<path d='M2.33126 0.0478207C2.33126 -0.645579 2.10411 -1.15965 1.61395 -1.15965C1.23138 -1.15965 1.0401 -0.848817 1.0401 -0.585803S1.21943 0 1.6259 0C1.78132 0 1.91283 -0.0478207 2.02042 -0.155417C2.04433 -0.179328 2.05629 -0.179328 2.06824 -0.179328C2.09215 -0.179328 2.09215 -0.0119552 2.09215 0.0478207C2.09215 0.442341 2.02042 1.21943 1.32702 1.99651C1.19552 2.13998 1.19552 2.16389 1.19552 2.1878C1.19552 2.24757 1.25529 2.30735 1.31507 2.30735C1.41071 2.30735 2.33126 1.42267 2.33126 0.0478207Z' id='g4-59'/>
<path d='M3.59851 -1.42267C3.53873 -1.21943 3.53873 -1.19552 3.37136 -0.968369C3.10834 -0.633624 2.58232 -0.119552 2.02042 -0.119552C1.53026 -0.119552 1.25529 -0.561893 1.25529 -1.26725C1.25529 -1.92478 1.6259 -3.26376 1.85305 -3.76588C2.25953 -4.60274 2.82142 -5.03313 3.28767 -5.03313C4.07671 -5.03313 4.23213 -4.0528 4.23213 -3.95716C4.23213 -3.94521 4.19626 -3.78979 4.18431 -3.76588L3.59851 -1.42267ZM4.36364 -4.48319C4.23213 -4.79402 3.90934 -5.27223 3.28767 -5.27223C1.93674 -5.27223 0.478207 -3.52677 0.478207 -1.75741C0.478207 -0.573848 1.17161 0.119552 1.98456 0.119552C2.64209 0.119552 3.20399 -0.394521 3.53873 -0.789041C3.65828 -0.0836862 4.22017 0.119552 4.57883 0.119552S5.22441 -0.0956413 5.4396 -0.526027C5.63088 -0.932503 5.79826 -1.66177 5.79826 -1.70959C5.79826 -1.76936 5.75044 -1.81719 5.6787 -1.81719C5.57111 -1.81719 5.55915 -1.75741 5.51133 -1.57808C5.332 -0.872727 5.10486 -0.119552 4.61469 -0.119552C4.268 -0.119552 4.24408 -0.430386 4.24408 -0.669489C4.24408 -0.944458 4.27995 -1.07597 4.38755 -1.54222C4.47123 -1.8411 4.53101 -2.10411 4.62665 -2.45081C5.06899 -4.24408 5.17659 -4.67447 5.17659 -4.7462C5.17659 -4.91357 5.04508 -5.04508 4.86575 -5.04508C4.48319 -5.04508 4.38755 -4.62665 4.36364 -4.48319Z' id='g4-97'/>
<path d='M4.67447 -4.49514C4.44732 -4.49514 4.33973 -4.49514 4.17235 -4.35168C4.10062 -4.29191 3.96912 -4.11258 3.96912 -3.9213C3.96912 -3.68219 4.14844 -3.53873 4.37559 -3.53873C4.66252 -3.53873 4.98531 -3.77783 4.98531 -4.25604C4.98531 -4.82989 4.43537 -5.27223 3.61046 -5.27223C2.04433 -5.27223 0.478207 -3.56264 0.478207 -1.86501C0.478207 -0.824907 1.12379 0.119552 2.34321 0.119552C3.96912 0.119552 4.99726 -1.1477 4.99726 -1.30311C4.99726 -1.37484 4.92553 -1.43462 4.87771 -1.43462C4.84184 -1.43462 4.82989 -1.42267 4.72229 -1.31507C3.95716 -0.298879 2.82142 -0.119552 2.36712 -0.119552C1.54222 -0.119552 1.2792 -0.836862 1.2792 -1.43462C1.2792 -1.85305 1.48244 -3.0127 1.91283 -3.82565C2.22366 -4.38755 2.86924 -5.03313 3.62242 -5.03313C3.77783 -5.03313 4.43537 -5.00922 4.67447 -4.49514Z' id='g4-99'/>
<path d='M6.01345 -7.99801C6.0254 -8.04583 6.04932 -8.11756 6.04932 -8.17733C6.04932 -8.29689 5.92976 -8.29689 5.90585 -8.29689C5.8939 -8.29689 5.30809 -8.24907 5.24832 -8.23711C5.04508 -8.22516 4.86575 -8.20125 4.65056 -8.18929C4.35168 -8.16538 4.268 -8.15342 4.268 -7.93823C4.268 -7.81868 4.36364 -7.81868 4.53101 -7.81868C5.11681 -7.81868 5.12877 -7.71108 5.12877 -7.59153C5.12877 -7.5198 5.10486 -7.42416 5.0929 -7.38829L4.36364 -4.48319C4.23213 -4.79402 3.90934 -5.27223 3.28767 -5.27223C1.93674 -5.27223 0.478207 -3.52677 0.478207 -1.75741C0.478207 -0.573848 1.17161 0.119552 1.98456 0.119552C2.64209 0.119552 3.20399 -0.394521 3.53873 -0.789041C3.65828 -0.0836862 4.22017 0.119552 4.57883 0.119552S5.22441 -0.0956413 5.4396 -0.526027C5.63088 -0.932503 5.79826 -1.66177 5.79826 -1.70959C5.79826 -1.76936 5.75044 -1.81719 5.6787 -1.81719C5.57111 -1.81719 5.55915 -1.75741 5.51133 -1.57808C5.332 -0.872727 5.10486 -0.119552 4.61469 -0.119552C4.268 -0.119552 4.24408 -0.430386 4.24408 -0.669489C4.24408 -0.71731 4.24408 -0.968369 4.32777 -1.30311L6.01345 -7.99801ZM3.59851 -1.42267C3.53873 -1.21943 3.53873 -1.19552 3.37136 -0.968369C3.10834 -0.633624 2.58232 -0.119552 2.02042 -0.119552C1.53026 -0.119552 1.25529 -0.561893 1.25529 -1.26725C1.25529 -1.92478 1.6259 -3.26376 1.85305 -3.76588C2.25953 -4.60274 2.82142 -5.03313 3.28767 -5.03313C4.07671 -5.03313 4.23213 -4.0528 4.23213 -3.95716C4.23213 -3.94521 4.19626 -3.78979 4.18431 -3.76588L3.59851 -1.42267Z' id='g4-100'/>
<path d='M2.13998 -2.7736C2.46276 -2.7736 3.27572 -2.79751 3.84956 -3.0127C4.75816 -3.3594 4.84184 -4.0528 4.84184 -4.268C4.84184 -4.79402 4.38755 -5.27223 3.59851 -5.27223C2.34321 -5.27223 0.537983 -4.13649 0.537983 -2.00847C0.537983 -0.753176 1.25529 0.119552 2.34321 0.119552C3.96912 0.119552 4.99726 -1.1477 4.99726 -1.30311C4.99726 -1.37484 4.92553 -1.43462 4.87771 -1.43462C4.84184 -1.43462 4.82989 -1.42267 4.72229 -1.31507C3.95716 -0.298879 2.82142 -0.119552 2.36712 -0.119552C1.68568 -0.119552 1.32702 -0.657534 1.32702 -1.54222C1.32702 -1.70959 1.32702 -2.00847 1.50635 -2.7736H2.13998ZM1.56613 -3.0127C2.0802 -4.8538 3.21594 -5.03313 3.59851 -5.03313C4.12453 -5.03313 4.48319 -4.72229 4.48319 -4.268C4.48319 -3.0127 2.57036 -3.0127 2.06824 -3.0127H1.56613Z' id='g4-101'/>
<path d='M5.332 -4.80598C5.57111 -4.80598 5.66675 -4.80598 5.66675 -5.03313C5.66675 -5.15268 5.57111 -5.15268 5.35592 -5.15268H4.38755C4.61469 -6.38406 4.78207 -7.23288 4.87771 -7.61544C4.94944 -7.90237 5.2005 -8.17733 5.51133 -8.17733C5.76239 -8.17733 6.01345 -8.06974 6.133 -7.96214C5.66675 -7.91432 5.52329 -7.56762 5.52329 -7.36438C5.52329 -7.12528 5.70262 -6.98182 5.92976 -6.98182C6.16887 -6.98182 6.52752 -7.18506 6.52752 -7.63935C6.52752 -8.14147 6.0254 -8.41644 5.49938 -8.41644C4.98531 -8.41644 4.48319 -8.03387 4.24408 -7.56762C4.02889 -7.14919 3.90934 -6.7188 3.63437 -5.15268H2.83337C2.60623 -5.15268 2.48667 -5.15268 2.48667 -4.93748C2.48667 -4.80598 2.55841 -4.80598 2.79751 -4.80598H3.56264C3.34745 -3.69415 2.85729 -0.992279 2.58232 0.286924C2.37908 1.32702 2.19975 2.19975 1.60199 2.19975C1.56613 2.19975 1.21943 2.19975 1.00423 1.9726C1.61395 1.92478 1.61395 1.39875 1.61395 1.3868C1.61395 1.1477 1.43462 1.00423 1.20747 1.00423C0.968369 1.00423 0.609714 1.20747 0.609714 1.66177C0.609714 2.17584 1.13574 2.43885 1.60199 2.43885C2.82142 2.43885 3.32354 0.251059 3.45504 -0.3467C3.67024 -1.26725 4.25604 -4.44732 4.31582 -4.80598H5.332Z' id='g4-102'/>
<path d='M3.38331 -1.70959C3.38331 -1.76936 3.33549 -1.81719 3.26376 -1.81719C3.15616 -1.81719 3.14421 -1.78132 3.08443 -1.57808C2.7736 -0.490162 2.28344 -0.119552 1.88892 -0.119552C1.74545 -0.119552 1.57808 -0.155417 1.57808 -0.514072C1.57808 -0.836862 1.72154 -1.19552 1.85305 -1.55417L2.68991 -3.77783C2.72578 -3.87347 2.80946 -4.08867 2.80946 -4.31582C2.80946 -4.81793 2.45081 -5.27223 1.86501 -5.27223C0.765131 -5.27223 0.32279 -3.53873 0.32279 -3.44309C0.32279 -3.39527 0.37061 -3.33549 0.454296 -3.33549C0.561893 -3.33549 0.573848 -3.38331 0.621669 -3.55068C0.908593 -4.55492 1.36289 -5.03313 1.82914 -5.03313C1.93674 -5.03313 2.13998 -5.02117 2.13998 -4.63861C2.13998 -4.32777 1.98456 -3.93325 1.88892 -3.67024L1.05205 -1.44658C0.980324 -1.25529 0.908593 -1.06401 0.908593 -0.848817C0.908593 -0.310834 1.2792 0.119552 1.85305 0.119552C2.95293 0.119552 3.38331 -1.6259 3.38331 -1.70959ZM3.28767 -7.46002C3.28767 -7.63935 3.14421 -7.85455 2.8812 -7.85455C2.60623 -7.85455 2.29539 -7.59153 2.29539 -7.2807C2.29539 -6.98182 2.54645 -6.88618 2.68991 -6.88618C3.0127 -6.88618 3.28767 -7.19701 3.28767 -7.46002Z' id='g4-105'/>
<path d='M3.03661 -7.99801C3.04857 -8.04583 3.07248 -8.11756 3.07248 -8.17733C3.07248 -8.29689 2.95293 -8.29689 2.92902 -8.29689C2.91706 -8.29689 2.48667 -8.26102 2.27148 -8.23711C2.06824 -8.22516 1.88892 -8.20125 1.67372 -8.18929C1.3868 -8.16538 1.30311 -8.15342 1.30311 -7.93823C1.30311 -7.81868 1.42267 -7.81868 1.54222 -7.81868C2.15193 -7.81868 2.15193 -7.71108 2.15193 -7.59153C2.15193 -7.54371 2.15193 -7.5198 2.09215 -7.30461L0.609714 -1.37484C0.573848 -1.24334 0.549938 -1.1477 0.549938 -0.956413C0.549938 -0.358655 0.992279 0.119552 1.60199 0.119552C1.99651 0.119552 2.25953 -0.143462 2.45081 -0.514072C2.65405 -0.908593 2.82142 -1.66177 2.82142 -1.70959C2.82142 -1.76936 2.7736 -1.81719 2.70187 -1.81719C2.59427 -1.81719 2.58232 -1.75741 2.5345 -1.57808C2.3193 -0.753176 2.10411 -0.119552 1.6259 -0.119552C1.26725 -0.119552 1.26725 -0.502117 1.26725 -0.669489C1.26725 -0.71731 1.26725 -0.968369 1.35093 -1.30311L3.03661 -7.99801Z' id='g4-108'/>
<path d='M2.46276 -3.50286C2.48667 -3.5746 2.78555 -4.17235 3.2279 -4.55492C3.53873 -4.84184 3.94521 -5.03313 4.41146 -5.03313C4.88966 -5.03313 5.05704 -4.67447 5.05704 -4.19626C5.05704 -4.12453 5.05704 -3.88543 4.91357 -3.32354L4.61469 -2.09215C4.51905 -1.7335 4.29191 -0.848817 4.268 -0.71731C4.22017 -0.537983 4.14844 -0.227148 4.14844 -0.179328C4.14844 -0.0119552 4.27995 0.119552 4.45928 0.119552C4.81793 0.119552 4.87771 -0.155417 4.98531 -0.585803L5.70262 -3.44309C5.72653 -3.53873 6.34819 -5.03313 7.66326 -5.03313C8.14147 -5.03313 8.30884 -4.67447 8.30884 -4.19626C8.30884 -3.52677 7.84259 -2.22366 7.57958 -1.50635C7.47198 -1.21943 7.4122 -1.06401 7.4122 -0.848817C7.4122 -0.310834 7.78281 0.119552 8.35666 0.119552C9.46849 0.119552 9.88692 -1.63786 9.88692 -1.70959C9.88692 -1.76936 9.8391 -1.81719 9.76737 -1.81719C9.65978 -1.81719 9.64782 -1.78132 9.58804 -1.57808C9.31308 -0.621669 8.87073 -0.119552 8.39253 -0.119552C8.27298 -0.119552 8.08169 -0.131507 8.08169 -0.514072C8.08169 -0.824907 8.22516 -1.20747 8.27298 -1.33898C8.48817 -1.91283 9.02615 -3.32354 9.02615 -4.01694C9.02615 -4.73425 8.60772 -5.27223 7.69913 -5.27223C6.89813 -5.27223 6.25255 -4.81793 5.77435 -4.11258C5.73848 -4.75816 5.34396 -5.27223 4.44732 -5.27223C3.38331 -5.27223 2.82142 -4.51905 2.60623 -4.22017C2.57036 -4.90162 2.0802 -5.27223 1.55417 -5.27223C1.20747 -5.27223 0.932503 -5.10486 0.705355 -4.65056C0.490162 -4.22017 0.32279 -3.49091 0.32279 -3.44309S0.37061 -3.33549 0.454296 -3.33549C0.549938 -3.33549 0.561893 -3.34745 0.633624 -3.62242C0.812951 -4.32777 1.0401 -5.03313 1.51831 -5.03313C1.79328 -5.03313 1.88892 -4.84184 1.88892 -4.48319C1.88892 -4.22017 1.76936 -3.75392 1.68568 -3.38331L1.35093 -2.09215C1.30311 -1.86501 1.17161 -1.32702 1.11183 -1.11183C1.02814 -0.800996 0.896638 -0.239103 0.896638 -0.179328C0.896638 -0.0119552 1.02814 0.119552 1.20747 0.119552C1.35093 0.119552 1.51831 0.0478207 1.61395 -0.131507C1.63786 -0.191283 1.74545 -0.609714 1.80523 -0.848817L2.06824 -1.92478L2.46276 -3.50286Z' id='g4-109'/>
<path d='M2.46276 -3.50286C2.48667 -3.5746 2.78555 -4.17235 3.2279 -4.55492C3.53873 -4.84184 3.94521 -5.03313 4.41146 -5.03313C4.88966 -5.03313 5.05704 -4.67447 5.05704 -4.19626C5.05704 -3.51482 4.56687 -2.15193 4.32777 -1.50635C4.22017 -1.21943 4.1604 -1.06401 4.1604 -0.848817C4.1604 -0.310834 4.53101 0.119552 5.10486 0.119552C6.21669 0.119552 6.63512 -1.63786 6.63512 -1.70959C6.63512 -1.76936 6.5873 -1.81719 6.51557 -1.81719C6.40797 -1.81719 6.39601 -1.78132 6.33624 -1.57808C6.06127 -0.597758 5.60697 -0.119552 5.14072 -0.119552C5.02117 -0.119552 4.82989 -0.131507 4.82989 -0.514072C4.82989 -0.812951 4.96139 -1.17161 5.03313 -1.33898C5.27223 -1.99651 5.77435 -3.33549 5.77435 -4.01694C5.77435 -4.73425 5.35592 -5.27223 4.44732 -5.27223C3.38331 -5.27223 2.82142 -4.51905 2.60623 -4.22017C2.57036 -4.90162 2.0802 -5.27223 1.55417 -5.27223C1.17161 -5.27223 0.908593 -5.04508 0.705355 -4.63861C0.490162 -4.20822 0.32279 -3.49091 0.32279 -3.44309S0.37061 -3.33549 0.454296 -3.33549C0.549938 -3.33549 0.561893 -3.34745 0.633624 -3.62242C0.824907 -4.35168 1.0401 -5.03313 1.51831 -5.03313C1.79328 -5.03313 1.88892 -4.84184 1.88892 -4.48319C1.88892 -4.22017 1.76936 -3.75392 1.68568 -3.38331L1.35093 -2.09215C1.30311 -1.86501 1.17161 -1.32702 1.11183 -1.11183C1.02814 -0.800996 0.896638 -0.239103 0.896638 -0.179328C0.896638 -0.0119552 1.02814 0.119552 1.20747 0.119552C1.35093 0.119552 1.51831 0.0478207 1.61395 -0.131507C1.63786 -0.191283 1.74545 -0.609714 1.80523 -0.848817L2.06824 -1.92478L2.46276 -3.50286Z' id='g4-110'/>
<path d='M5.45156 -3.28767C5.45156 -4.42341 4.71034 -5.27223 3.62242 -5.27223C2.04433 -5.27223 0.490162 -3.55068 0.490162 -1.86501C0.490162 -0.729265 1.23138 0.119552 2.3193 0.119552C3.90934 0.119552 5.45156 -1.60199 5.45156 -3.28767ZM2.33126 -0.119552C1.7335 -0.119552 1.29116 -0.597758 1.29116 -1.43462C1.29116 -1.98456 1.57808 -3.20399 1.91283 -3.80174C2.45081 -4.72229 3.1203 -5.03313 3.61046 -5.03313C4.19626 -5.03313 4.65056 -4.55492 4.65056 -3.71806C4.65056 -3.23985 4.3995 -1.96065 3.94521 -1.23138C3.45504 -0.430386 2.79751 -0.119552 2.33126 -0.119552Z' id='g4-111'/>
<path d='M4.65056 -4.88966C4.27995 -4.81793 4.08867 -4.55492 4.08867 -4.29191C4.08867 -4.00498 4.31582 -3.90934 4.48319 -3.90934C4.81793 -3.90934 5.0929 -4.19626 5.0929 -4.55492C5.0929 -4.93748 4.72229 -5.27223 4.12453 -5.27223C3.64633 -5.27223 3.09639 -5.05704 2.59427 -4.32777C2.51059 -4.96139 2.03238 -5.27223 1.55417 -5.27223C1.08792 -5.27223 0.848817 -4.91357 0.705355 -4.65056C0.502117 -4.22017 0.32279 -3.50286 0.32279 -3.44309C0.32279 -3.39527 0.37061 -3.33549 0.454296 -3.33549C0.549938 -3.33549 0.561893 -3.34745 0.633624 -3.62242C0.812951 -4.33973 1.0401 -5.03313 1.51831 -5.03313C1.80523 -5.03313 1.88892 -4.82989 1.88892 -4.48319C1.88892 -4.22017 1.76936 -3.75392 1.68568 -3.38331L1.35093 -2.09215C1.30311 -1.86501 1.17161 -1.32702 1.11183 -1.11183C1.02814 -0.800996 0.896638 -0.239103 0.896638 -0.179328C0.896638 -0.0119552 1.02814 0.119552 1.20747 0.119552C1.33898 0.119552 1.56613 0.0358655 1.63786 -0.203238C1.67372 -0.298879 2.11606 -2.10411 2.1878 -2.37908C2.24757 -2.64209 2.3193 -2.89315 2.37908 -3.15616C2.4269 -3.32354 2.47472 -3.51482 2.51059 -3.67024C2.54645 -3.77783 2.86924 -4.36364 3.16812 -4.62665C3.31158 -4.75816 3.62242 -5.03313 4.11258 -5.03313C4.30386 -5.03313 4.49514 -4.99726 4.65056 -4.88966Z' id='g4-114'/>
<path d='M2.72578 -2.39103C2.92902 -2.35517 3.25181 -2.28344 3.32354 -2.27148C3.47895 -2.22366 4.01694 -2.03238 4.01694 -1.45853C4.01694 -1.08792 3.68219 -0.119552 2.29539 -0.119552C2.04433 -0.119552 1.1477 -0.155417 0.908593 -0.812951C1.3868 -0.753176 1.6259 -1.12379 1.6259 -1.3868C1.6259 -1.63786 1.45853 -1.76936 1.21943 -1.76936C0.956413 -1.76936 0.609714 -1.56613 0.609714 -1.02814C0.609714 -0.32279 1.32702 0.119552 2.28344 0.119552C4.10062 0.119552 4.63861 -1.21943 4.63861 -1.8411C4.63861 -2.02042 4.63861 -2.35517 4.25604 -2.73773C3.95716 -3.02466 3.67024 -3.08443 3.02466 -3.21594C2.70187 -3.28767 2.1878 -3.39527 2.1878 -3.93325C2.1878 -4.17235 2.40299 -5.03313 3.53873 -5.03313C4.04085 -5.03313 4.53101 -4.84184 4.65056 -4.41146C4.12453 -4.41146 4.10062 -3.95716 4.10062 -3.94521C4.10062 -3.69415 4.32777 -3.62242 4.43537 -3.62242C4.60274 -3.62242 4.93748 -3.75392 4.93748 -4.25604S4.48319 -5.27223 3.55068 -5.27223C1.98456 -5.27223 1.56613 -4.04085 1.56613 -3.55068C1.56613 -2.64209 2.45081 -2.45081 2.72578 -2.39103Z' id='g4-115'/>
<path d='M2.40299 -4.80598H3.50286C3.73001 -4.80598 3.84956 -4.80598 3.84956 -5.02117C3.84956 -5.15268 3.77783 -5.15268 3.53873 -5.15268H2.48667L2.92902 -6.89813C2.97684 -7.0655 2.97684 -7.08941 2.97684 -7.1731C2.97684 -7.36438 2.82142 -7.47198 2.666 -7.47198C2.57036 -7.47198 2.29539 -7.43611 2.19975 -7.05355L1.7335 -5.15268H0.609714C0.37061 -5.15268 0.263014 -5.15268 0.263014 -4.92553C0.263014 -4.80598 0.3467 -4.80598 0.573848 -4.80598H1.63786L0.848817 -1.64981C0.753176 -1.23138 0.71731 -1.11183 0.71731 -0.956413C0.71731 -0.394521 1.11183 0.119552 1.78132 0.119552C2.98879 0.119552 3.63437 -1.6259 3.63437 -1.70959C3.63437 -1.78132 3.58655 -1.81719 3.51482 -1.81719C3.49091 -1.81719 3.44309 -1.81719 3.41918 -1.76936C3.40722 -1.75741 3.39527 -1.74545 3.31158 -1.55417C3.06052 -0.956413 2.51059 -0.119552 1.81719 -0.119552C1.45853 -0.119552 1.43462 -0.418431 1.43462 -0.681445C1.43462 -0.6934 1.43462 -0.920548 1.47049 -1.06401L2.40299 -4.80598Z' id='g4-116'/>
<path d='M5.46351 -4.47123C5.46351 -5.22441 5.08095 -5.27223 4.98531 -5.27223C4.69838 -5.27223 4.43537 -4.98531 4.43537 -4.7462C4.43537 -4.60274 4.51905 -4.51905 4.56687 -4.47123C4.68643 -4.36364 4.99726 -4.04085 4.99726 -3.41918C4.99726 -2.91706 4.27995 -0.119552 2.84533 -0.119552C2.11606 -0.119552 1.9726 -0.729265 1.9726 -1.17161C1.9726 -1.76936 2.24757 -2.60623 2.57036 -3.467C2.76164 -3.95716 2.80946 -4.07671 2.80946 -4.31582C2.80946 -4.81793 2.45081 -5.27223 1.86501 -5.27223C0.765131 -5.27223 0.32279 -3.53873 0.32279 -3.44309C0.32279 -3.39527 0.37061 -3.33549 0.454296 -3.33549C0.561893 -3.33549 0.573848 -3.38331 0.621669 -3.55068C0.908593 -4.57883 1.37484 -5.03313 1.82914 -5.03313C1.93674 -5.03313 2.13998 -5.03313 2.13998 -4.63861C2.13998 -4.32777 2.00847 -3.98107 1.82914 -3.52677C1.25529 -1.99651 1.25529 -1.6259 1.25529 -1.33898C1.25529 -1.07597 1.29116 -0.585803 1.66177 -0.251059C2.09215 0.119552 2.68991 0.119552 2.79751 0.119552C4.78207 0.119552 5.46351 -3.78979 5.46351 -4.47123Z' id='g4-118'/>
<path d='M4.11258 -0.729265C4.37559 -0.0119552 5.11681 0.119552 5.57111 0.119552C6.4797 0.119552 7.01768 -0.669489 7.35243 -1.4944C7.6274 -2.1878 8.06974 -3.76588 8.06974 -4.47123C8.06974 -5.2005 7.69913 -5.27223 7.59153 -5.27223C7.30461 -5.27223 7.04159 -4.98531 7.04159 -4.7462C7.04159 -4.60274 7.12528 -4.51905 7.18506 -4.47123C7.29265 -4.36364 7.60349 -4.04085 7.60349 -3.41918C7.60349 -3.0127 7.26874 -1.88892 7.01768 -1.32702C6.68294 -0.597758 6.2406 -0.119552 5.61893 -0.119552C4.94944 -0.119552 4.73425 -0.621669 4.73425 -1.17161C4.73425 -1.51831 4.84184 -1.93674 4.88966 -2.13998L5.39178 -4.14844C5.45156 -4.38755 5.55915 -4.80598 5.55915 -4.8538C5.55915 -5.03313 5.41569 -5.15268 5.23636 -5.15268C4.88966 -5.15268 4.80598 -4.8538 4.73425 -4.56687C4.61469 -4.10062 4.11258 -2.0802 4.06476 -1.81719C4.01694 -1.61395 4.01694 -1.48244 4.01694 -1.21943C4.01694 -0.932503 3.63437 -0.478207 3.62242 -0.454296C3.49091 -0.32279 3.29963 -0.119552 2.92902 -0.119552C1.98456 -0.119552 1.98456 -1.01619 1.98456 -1.21943C1.98456 -1.60199 2.06824 -2.12802 2.60623 -3.55068C2.74969 -3.9213 2.80946 -4.07671 2.80946 -4.31582C2.80946 -4.81793 2.45081 -5.27223 1.86501 -5.27223C0.765131 -5.27223 0.32279 -3.53873 0.32279 -3.44309C0.32279 -3.39527 0.37061 -3.33549 0.454296 -3.33549C0.561893 -3.33549 0.573848 -3.38331 0.621669 -3.55068C0.920548 -4.60274 1.3868 -5.03313 1.82914 -5.03313C1.94869 -5.03313 2.13998 -5.02117 2.13998 -4.63861C2.13998 -4.57883 2.13998 -4.32777 1.93674 -3.80174C1.37484 -2.30735 1.25529 -1.81719 1.25529 -1.36289C1.25529 -0.107597 2.28344 0.119552 2.89315 0.119552C3.09639 0.119552 3.63437 0.119552 4.11258 -0.729265Z' id='g4-119'/>
<path d='M2.29539 -2.98879C2.29539 -3.33549 2.00847 -3.62242 1.66177 -3.62242S1.02814 -3.33549 1.02814 -2.98879S1.31507 -2.35517 1.66177 -2.35517S2.29539 -2.64209 2.29539 -2.98879Z' id='g2-1'/>
<path d='M1.49041 -0.119552C1.49041 0.398506 1.37883 0.852802 0.884682 1.34695C0.852802 1.37086 0.836862 1.3868 0.836862 1.42665C0.836862 1.49041 0.900623 1.53823 0.956413 1.53823C1.05205 1.53823 1.71357 0.908593 1.71357 -0.0239103C1.71357 -0.533998 1.52229 -0.884682 1.17161 -0.884682C0.892653 -0.884682 0.73325 -0.661519 0.73325 -0.446326C0.73325 -0.223163 0.884682 0 1.17958 0C1.37086 0 1.49041 -0.111582 1.49041 -0.119552Z' id='g3-59'/>
<path d='M4.28792 -5.29215C4.29589 -5.30809 4.3198 -5.41171 4.3198 -5.41968C4.3198 -5.45953 4.28792 -5.53126 4.19228 -5.53126C4.1604 -5.53126 3.91333 -5.50735 3.73001 -5.49141L3.28369 -5.45953C3.10834 -5.44359 3.02864 -5.43562 3.02864 -5.29215C3.02864 -5.18057 3.14022 -5.18057 3.23587 -5.18057C3.61843 -5.18057 3.61843 -5.13275 3.61843 -5.06102C3.61843 -5.0132 3.55467 -4.75019 3.51482 -4.59078L3.12428 -3.03661C3.05255 -3.1721 2.82142 -3.51482 2.33524 -3.51482C1.3868 -3.51482 0.342715 -2.40697 0.342715 -1.2274C0.342715 -0.398506 0.876712 0.0797011 1.49041 0.0797011C2.0005 0.0797011 2.43885 -0.326775 2.58232 -0.486177C2.72578 0.0637609 3.26775 0.0797011 3.36339 0.0797011C3.73001 0.0797011 3.91333 -0.223163 3.97709 -0.358655C4.13649 -0.645579 4.24807 -1.10785 4.24807 -1.13973C4.24807 -1.18755 4.21619 -1.24334 4.12055 -1.24334S4.00897 -1.19552 3.96115 -0.996264C3.84956 -0.557908 3.69813 -0.143462 3.3873 -0.143462C3.20399 -0.143462 3.13225 -0.294894 3.13225 -0.518057C3.13225 -0.669489 3.15616 -0.757161 3.18007 -0.860772L4.28792 -5.29215ZM2.58232 -0.860772C2.18381 -0.310834 1.76936 -0.143462 1.51432 -0.143462C1.1477 -0.143462 0.964384 -0.478207 0.964384 -0.892653C0.964384 -1.26725 1.17958 -2.12005 1.35492 -2.47073C1.58605 -2.95691 1.97659 -3.29166 2.34321 -3.29166C2.86127 -3.29166 3.0127 -2.70984 3.0127 -2.6142C3.0127 -2.58232 2.81345 -1.80125 2.76563 -1.59402C2.66202 -1.21943 2.66202 -1.20349 2.58232 -0.860772Z' id='g3-100'/>
<path d='M3.05255 -3.1721H3.79377C3.95318 -3.1721 4.04882 -3.1721 4.04882 -3.32354C4.04882 -3.43512 3.94521 -3.43512 3.80971 -3.43512H3.10037C3.2279 -4.15243 3.3076 -4.60672 3.3873 -4.96538C3.41918 -5.10087 3.44309 -5.18854 3.56264 -5.28418C3.66625 -5.37186 3.73001 -5.3878 3.81768 -5.3878C3.93724 -5.3878 4.06476 -5.36389 4.16837 -5.30012C4.12852 -5.28418 4.0807 -5.26027 4.04085 -5.23636C3.90535 -5.16463 3.80971 -5.02117 3.80971 -4.86177C3.80971 -4.67846 3.95318 -4.56687 4.12852 -4.56687C4.35965 -4.56687 4.57484 -4.76613 4.57484 -5.04508C4.57484 -5.41968 4.19228 -5.61096 3.80971 -5.61096C3.53873 -5.61096 3.03661 -5.48344 2.78157 -4.75019C2.70984 -4.56687 2.70984 -4.55093 2.49465 -3.43512H1.89689C1.73748 -3.43512 1.64184 -3.43512 1.64184 -3.28369C1.64184 -3.1721 1.74545 -3.1721 1.88095 -3.1721H2.44682L1.87298 -0.0797011C1.72154 0.72528 1.60199 1.40274 1.17958 1.40274C1.15567 1.40274 0.988294 1.40274 0.836862 1.3071C1.20349 1.21943 1.20349 0.884682 1.20349 0.876712C1.20349 0.6934 1.06002 0.581818 0.884682 0.581818C0.669489 0.581818 0.438356 0.765131 0.438356 1.068C0.438356 1.40274 0.781071 1.6259 1.17958 1.6259C1.66575 1.6259 2.0005 1.11582 2.10411 0.916563C2.39103 0.390535 2.57435 -0.605729 2.59029 -0.68543L3.05255 -3.1721Z' id='g3-102'/>
<path d='M2.37509 -4.97335C2.37509 -5.14869 2.24757 -5.27621 2.06426 -5.27621C1.85704 -5.27621 1.6259 -5.08493 1.6259 -4.84583C1.6259 -4.67049 1.75342 -4.54296 1.93674 -4.54296C2.14396 -4.54296 2.37509 -4.73425 2.37509 -4.97335ZM1.21146 -2.04832L0.781071 -0.948443C0.74122 -0.828892 0.70137 -0.73325 0.70137 -0.597758C0.70137 -0.207223 1.00423 0.0797011 1.42665 0.0797011C2.19975 0.0797011 2.52653 -1.03611 2.52653 -1.13973C2.52653 -1.21943 2.46276 -1.24334 2.40697 -1.24334C2.31133 -1.24334 2.29539 -1.18755 2.27148 -1.10785C2.08817 -0.470237 1.76139 -0.143462 1.44259 -0.143462C1.34695 -0.143462 1.25131 -0.183313 1.25131 -0.398506C1.25131 -0.589788 1.3071 -0.73325 1.41071 -0.980324C1.49041 -1.19552 1.57011 -1.41071 1.65778 -1.6259L1.90486 -2.27148C1.97659 -2.45479 2.07223 -2.70187 2.07223 -2.83736C2.07223 -3.23587 1.75342 -3.51482 1.34695 -3.51482C0.573848 -3.51482 0.239103 -2.399 0.239103 -2.29539C0.239103 -2.22366 0.294894 -2.19178 0.358655 -2.19178C0.462267 -2.19178 0.470237 -2.2396 0.494147 -2.3193C0.71731 -3.07646 1.08394 -3.29166 1.32304 -3.29166C1.43462 -3.29166 1.51432 -3.25181 1.51432 -3.02864C1.51432 -2.94894 1.50635 -2.83736 1.42665 -2.59826L1.21146 -2.04832Z' id='g3-105'/>
<path d='M1.59402 -1.3071C1.61793 -1.42665 1.69763 -1.72951 1.72154 -1.84907C1.74545 -1.92877 1.79328 -2.12005 1.80922 -2.19975C1.82516 -2.2396 2.08817 -2.75766 2.43885 -3.02067C2.70984 -3.2279 2.97285 -3.29166 3.19601 -3.29166C3.49091 -3.29166 3.65031 -3.11631 3.65031 -2.74969C3.65031 -2.55841 3.60249 -2.37509 3.51482 -2.01644C3.45903 -1.80922 3.32354 -1.27522 3.27572 -1.06002L3.15616 -0.581818C3.11631 -0.446326 3.06052 -0.207223 3.06052 -0.167372C3.06052 0.0159402 3.21196 0.0797011 3.31557 0.0797011C3.45903 0.0797011 3.57858 -0.0159402 3.63437 -0.111582C3.65828 -0.159402 3.72204 -0.430386 3.76189 -0.597758L3.94521 -1.3071C3.96912 -1.42665 4.04882 -1.72951 4.07273 -1.84907C4.18431 -2.27945 4.18431 -2.28742 4.36762 -2.55044C4.63064 -2.94097 5.00523 -3.29166 5.53923 -3.29166C5.82615 -3.29166 5.99352 -3.12428 5.99352 -2.74969C5.99352 -2.31133 5.65878 -1.39477 5.50735 -1.0122C5.42765 -0.804981 5.40374 -0.749191 5.40374 -0.597758C5.40374 -0.143462 5.77833 0.0797011 6.12105 0.0797011C6.90212 0.0797011 7.22889 -1.03611 7.22889 -1.13973C7.22889 -1.21943 7.16513 -1.24334 7.10934 -1.24334C7.0137 -1.24334 6.99776 -1.18755 6.97385 -1.10785C6.78257 -0.446326 6.44782 -0.143462 6.14496 -0.143462C6.01743 -0.143462 5.95367 -0.223163 5.95367 -0.406476S6.01743 -0.765131 6.09714 -0.964384C6.21669 -1.26725 6.56737 -2.18381 6.56737 -2.63014C6.56737 -3.2279 6.15293 -3.51482 5.57908 -3.51482C5.02914 -3.51482 4.57484 -3.2279 4.21619 -2.73375C4.15243 -3.37136 3.64234 -3.51482 3.2279 -3.51482C2.86127 -3.51482 2.37509 -3.3873 1.93674 -2.81345C1.88095 -3.29166 1.49838 -3.51482 1.12379 -3.51482C0.844832 -3.51482 0.645579 -3.34745 0.510087 -3.07646C0.318804 -2.70187 0.239103 -2.31133 0.239103 -2.29539C0.239103 -2.22366 0.294894 -2.19178 0.358655 -2.19178C0.462267 -2.19178 0.470237 -2.22366 0.526027 -2.43088C0.621669 -2.82142 0.765131 -3.29166 1.09988 -3.29166C1.3071 -3.29166 1.35492 -3.0924 1.35492 -2.91706C1.35492 -2.7736 1.31507 -2.62217 1.25131 -2.35915C1.23537 -2.29539 1.11582 -1.82516 1.08394 -1.71357L0.789041 -0.518057C0.757161 -0.398506 0.70934 -0.199253 0.70934 -0.167372C0.70934 0.0159402 0.860772 0.0797011 0.964384 0.0797011C1.10785 0.0797011 1.2274 -0.0159402 1.28319 -0.111582C1.3071 -0.159402 1.37086 -0.430386 1.41071 -0.597758L1.59402 -1.3071Z' id='g3-109'/>
<path d='M3.21196 -2.99676C3.02864 -2.96488 2.86127 -2.82142 2.86127 -2.62217C2.86127 -2.4787 2.95691 -2.37509 3.13225 -2.37509C3.25181 -2.37509 3.49888 -2.46276 3.49888 -2.82142C3.49888 -3.31557 2.98082 -3.51482 2.48667 -3.51482C1.41868 -3.51482 1.08394 -2.75766 1.08394 -2.35118C1.08394 -2.27148 1.08394 -1.98456 1.37883 -1.76139C1.56214 -1.61793 1.69763 -1.59402 2.11208 -1.51432C2.39103 -1.45853 2.84533 -1.37883 2.84533 -0.964384C2.84533 -0.757161 2.6939 -0.494147 2.47073 -0.342715C2.17584 -0.151432 1.78531 -0.143462 1.65778 -0.143462C1.4665 -0.143462 0.924533 -0.175342 0.72528 -0.494147C1.13176 -0.510087 1.18755 -0.836862 1.18755 -0.932503C1.18755 -1.17161 0.972354 -1.2274 0.876712 -1.2274C0.749191 -1.2274 0.422416 -1.13176 0.422416 -0.6934C0.422416 -0.223163 0.916563 0.0797011 1.65778 0.0797011C3.04458 0.0797011 3.33948 -0.900623 3.33948 -1.23537C3.33948 -1.95268 2.55841 -2.10411 2.26351 -2.1599C1.88095 -2.23163 1.57011 -2.28742 1.57011 -2.62217C1.57011 -2.76563 1.7056 -3.29166 2.4787 -3.29166C2.78157 -3.29166 3.0924 -3.20399 3.21196 -2.99676Z' id='g3-115'/>
<path d='M1.76139 -3.1721H2.54247C2.6939 -3.1721 2.78954 -3.1721 2.78954 -3.32354C2.78954 -3.43512 2.68593 -3.43512 2.55044 -3.43512H1.82516L2.11208 -4.56687C2.14396 -4.68643 2.14396 -4.72628 2.14396 -4.73425C2.14396 -4.90162 2.01644 -4.98132 1.88095 -4.98132C1.60996 -4.98132 1.55417 -4.76613 1.4665 -4.40747L1.21943 -3.43512H0.454296C0.302864 -3.43512 0.199253 -3.43512 0.199253 -3.28369C0.199253 -3.1721 0.302864 -3.1721 0.438356 -3.1721H1.15567L0.67746 -1.25928C0.629639 -1.06002 0.557908 -0.781071 0.557908 -0.669489C0.557908 -0.191283 0.948443 0.0797011 1.37086 0.0797011C2.22366 0.0797011 2.70984 -1.04408 2.70984 -1.13973C2.70984 -1.2274 2.63811 -1.24334 2.59029 -1.24334C2.50262 -1.24334 2.49465 -1.21146 2.43885 -1.09191C2.27945 -0.70934 1.88095 -0.143462 1.39477 -0.143462C1.2274 -0.143462 1.13176 -0.255044 1.13176 -0.518057C1.13176 -0.669489 1.15567 -0.757161 1.17958 -0.860772L1.76139 -3.1721Z' id='g3-116'/>
<path d='M3.90535 -2.60623C3.95318 -2.79751 4.04085 -3.14022 4.04085 -3.18804C4.04085 -3.3873 3.88144 -3.43512 3.7858 -3.43512C3.50685 -3.43512 3.45903 -3.23587 3.36339 -2.86924C3.25978 -2.45479 3.2279 -2.30336 3.10834 -1.84907C3.03661 -1.5462 2.94097 -1.17161 2.94097 -0.940473C2.94097 -0.900623 2.94894 -0.836862 2.94894 -0.797011C2.94894 -0.789041 2.73375 -0.143462 2.20772 -0.143462C1.88892 -0.143462 1.53026 -0.270984 1.53026 -0.860772C1.53026 -1.25131 1.71357 -1.76936 1.96862 -2.41494C2.04832 -2.62217 2.07223 -2.6939 2.07223 -2.83736C2.07223 -3.27572 1.72154 -3.51482 1.35492 -3.51482C0.565878 -3.51482 0.239103 -2.39103 0.239103 -2.29539C0.239103 -2.22366 0.294894 -2.19178 0.358655 -2.19178C0.462267 -2.19178 0.470237 -2.2396 0.494147 -2.3193C0.70137 -3.0127 1.04408 -3.29166 1.33101 -3.29166C1.45056 -3.29166 1.52229 -3.21196 1.52229 -3.02864C1.52229 -2.86127 1.45853 -2.67796 1.40274 -2.5345C1.09191 -1.73748 0.948443 -1.31507 0.948443 -0.964384C0.948443 -0.151432 1.61793 0.0797011 2.17584 0.0797011C2.30336 0.0797011 2.71781 0.0797011 3.04458 -0.446326C3.26775 -0.0159402 3.76986 0.0797011 4.11258 0.0797011C4.82989 0.0797011 5.16463 -0.589788 5.30809 -0.868742C5.56314 -1.3868 5.84209 -2.43088 5.84209 -2.90112C5.84209 -3.52279 5.48344 -3.52279 5.45156 -3.52279C5.26027 -3.52279 5.03711 -3.31557 5.03711 -3.10834C5.03711 -2.99676 5.08493 -2.933 5.14072 -2.89315C5.22839 -2.81345 5.4675 -2.6142 5.4675 -2.22366C5.4675 -1.99253 5.24433 -1.23537 5.02117 -0.820922C4.79801 -0.422416 4.53499 -0.143462 4.13649 -0.143462C3.7858 -0.143462 3.51482 -0.326775 3.51482 -0.836862C3.51482 -1.04408 3.57061 -1.26725 3.68219 -1.71357L3.90535 -2.60623Z' id='g3-119'/>
<path d='M5.7066 -2.63014C5.80224 -2.67796 5.87397 -2.72578 5.87397 -2.82939S5.80224 -2.98082 5.7066 -3.02864L1.04408 -5.27621C0.932503 -5.332 0.900623 -5.332 0.884682 -5.332C0.781071 -5.332 0.70137 -5.24433 0.70137 -5.14869C0.70137 -5.04508 0.773101 -4.99726 0.868742 -4.94944L5.26824 -2.82939L0.900623 -0.71731C0.765131 -0.653549 0.70137 -0.621669 0.70137 -0.510087C0.70137 -0.406476 0.781071 -0.326775 0.884682 -0.326775C0.908593 -0.326775 0.924533 -0.326775 1.02814 -0.382565L5.7066 -2.63014ZM5.57111 1.35492C5.69863 1.35492 5.87397 1.35492 5.87397 1.17161S5.69066 0.988294 5.56314 0.988294H1.0122C0.876712 0.988294 0.70137 0.988294 0.70137 1.17161S0.876712 1.35492 1.00423 1.35492H5.57111Z' id='g1-21'/>
<path d='M4.63064 -1.80922C4.75816 -1.80922 4.9335 -1.80922 4.9335 -1.99253S4.75816 -2.17584 4.63064 -2.17584H1.07597C1.17958 -3.28369 2.10411 -4.12852 3.31557 -4.12852H4.63064C4.75816 -4.12852 4.9335 -4.12852 4.9335 -4.31183S4.75816 -4.49514 4.63064 -4.49514H3.29166C1.85704 -4.49514 0.70137 -3.37933 0.70137 -1.99253C0.70137 -0.597758 1.86501 0.510087 3.29166 0.510087H4.63064C4.75816 0.510087 4.9335 0.510087 4.9335 0.326775S4.75816 0.143462 4.63064 0.143462H3.31557C2.10411 0.143462 1.17958 -0.70137 1.07597 -1.80922H4.63064Z' id='g1-50'/>
<path d='M4.65455 -5.19651C4.70237 -5.30809 4.70237 -5.31606 4.70237 -5.34795C4.70237 -5.44359 4.62267 -5.53126 4.51905 -5.53126C4.3995 -5.53126 4.35965 -5.44359 4.32777 -5.35592L3.61843 -3.61843H1.08394L0.382565 -5.34795C0.350685 -5.42765 0.310834 -5.53126 0.183313 -5.53126C0.0876712 -5.53126 0 -5.45156 0 -5.34795C0 -5.32403 0 -5.30809 0.0557908 -5.18854L2.15193 -0.0159402C2.18381 0.0637609 2.22366 0.167372 2.35118 0.167372C2.47073 0.167372 2.50262 0.0797011 2.54247 -0.00797011L4.65455 -5.19651ZM1.23537 -3.25181H3.467L2.35118 -0.510087L1.23537 -3.25181Z' id='g1-56'/>
<path d='M1.35492 -5.67472C1.35492 -5.80224 1.35492 -5.97758 1.17161 -5.97758S0.988294 -5.80224 0.988294 -5.67472V1.68966C0.988294 1.81719 0.988294 1.99253 1.17161 1.99253S1.35492 1.81719 1.35492 1.68966V-5.67472Z' id='g1-106'/>
<path d='M2.65405 1.99253C2.71781 1.99253 2.81345 1.99253 2.81345 1.89689C2.81345 1.86501 2.80548 1.85704 2.70187 1.75342C1.60996 0.72528 1.33898 -0.757161 1.33898 -1.99253C1.33898 -4.28792 2.28742 -5.36389 2.6939 -5.73051C2.80548 -5.83412 2.81345 -5.84209 2.81345 -5.88194S2.78157 -5.97758 2.70187 -5.97758C2.57435 -5.97758 2.17584 -5.57111 2.11208 -5.49938C1.04408 -4.38356 0.820922 -2.94894 0.820922 -1.99253C0.820922 -0.207223 1.57011 1.2274 2.65405 1.99253Z' id='g5-40'/>
<path d='M2.46276 -1.99253C2.46276 -2.74969 2.33524 -3.65828 1.8411 -4.59875C1.45056 -5.332 0.72528 -5.97758 0.581818 -5.97758C0.502117 -5.97758 0.478207 -5.92179 0.478207 -5.88194C0.478207 -5.85006 0.478207 -5.83412 0.573848 -5.73848C1.68966 -4.67846 1.94471 -3.21993 1.94471 -1.99253C1.94471 0.294894 0.996264 1.37883 0.589788 1.74545C0.486177 1.84907 0.478207 1.85704 0.478207 1.89689S0.502117 1.99253 0.581818 1.99253C0.70934 1.99253 1.10785 1.58605 1.17161 1.51432C2.2396 0.398506 2.46276 -1.03611 2.46276 -1.99253Z' id='g5-41'/>
<path d='M6.09714 -1.64981H8.71532C8.88269 -1.64981 9.09788 -1.64981 9.09788 -1.86501C9.09788 -2.09215 8.89465 -2.09215 8.71532 -2.09215H6.21669L6.68294 -3.87347H8.71532C8.88269 -3.87347 9.09788 -3.87347 9.09788 -4.08867C9.09788 -4.31582 8.89465 -4.31582 8.71532 -4.31582H6.81445L7.74695 -7.85455C7.79477 -8.02192 7.79477 -8.05778 7.79477 -8.06974C7.79477 -8.20125 7.69913 -8.29689 7.56762 -8.29689C7.40025 -8.29689 7.36438 -8.14147 7.32852 -8.02192L6.34819 -4.31582H4.11258L5.04508 -7.85455C5.0929 -8.02192 5.0929 -8.05778 5.0929 -8.06974C5.0929 -8.20125 4.99726 -8.29689 4.86575 -8.29689C4.69838 -8.29689 4.66252 -8.14147 4.62665 -8.02192L3.64633 -4.31582H1.02814C0.860772 -4.31582 0.645579 -4.31582 0.645579 -4.10062C0.645579 -3.87347 0.848817 -3.87347 1.02814 -3.87347H3.52677L3.06052 -2.09215H1.02814C0.860772 -2.09215 0.645579 -2.09215 0.645579 -1.87696C0.645579 -1.64981 0.848817 -1.64981 1.02814 -1.64981H2.92902L1.99651 1.87696C1.94869 2.04433 1.94869 2.0802 1.94869 2.09215C1.94869 2.22366 2.04433 2.3193 2.17584 2.3193C2.34321 2.3193 2.37908 2.16389 2.41494 2.04433L3.39527 -1.64981H5.63088L4.69838 1.87696C4.65056 2.04433 4.65056 2.0802 4.65056 2.09215C4.65056 2.22366 4.7462 2.3193 4.87771 2.3193C5.04508 2.3193 5.08095 2.16389 5.11681 2.04433L6.09714 -1.64981ZM3.51482 -2.09215L3.98107 -3.87347H6.22864L5.76239 -2.09215H3.51482Z' id='g6-35'/>
<path d='M3.88543 2.90511C3.88543 2.86924 3.88543 2.84533 3.68219 2.64209C2.48667 1.43462 1.81719 -0.537983 1.81719 -2.97684C1.81719 -5.29614 2.37908 -7.29265 3.76588 -8.70336C3.88543 -8.81096 3.88543 -8.83487 3.88543 -8.87073C3.88543 -8.94247 3.82565 -8.96638 3.77783 -8.96638C3.62242 -8.96638 2.64209 -8.1056 2.05629 -6.934C1.44658 -5.72653 1.17161 -4.44732 1.17161 -2.97684C1.17161 -1.91283 1.33898 -0.490162 1.96065 0.789041C2.666 2.22366 3.64633 3.00075 3.77783 3.00075C3.82565 3.00075 3.88543 2.97684 3.88543 2.90511Z' id='g6-40'/>
<path d='M3.37136 -2.97684C3.37136 -3.88543 3.25181 -5.36787 2.58232 -6.75467C1.87696 -8.18929 0.896638 -8.96638 0.765131 -8.96638C0.71731 -8.96638 0.657534 -8.94247 0.657534 -8.87073C0.657534 -8.83487 0.657534 -8.81096 0.860772 -8.60772C2.05629 -7.40025 2.72578 -5.42765 2.72578 -2.98879C2.72578 -0.669489 2.16389 1.32702 0.777086 2.73773C0.657534 2.84533 0.657534 2.86924 0.657534 2.90511C0.657534 2.97684 0.71731 3.00075 0.765131 3.00075C0.920548 3.00075 1.90087 2.13998 2.48667 0.968369C3.09639 -0.251059 3.37136 -1.54222 3.37136 -2.97684Z' id='g6-41'/>
<path d='M4.77011 -2.76164H8.06974C8.23711 -2.76164 8.4523 -2.76164 8.4523 -2.97684C8.4523 -3.20399 8.24907 -3.20399 8.06974 -3.20399H4.77011V-6.50361C4.77011 -6.67098 4.77011 -6.88618 4.55492 -6.88618C4.32777 -6.88618 4.32777 -6.68294 4.32777 -6.50361V-3.20399H1.02814C0.860772 -3.20399 0.645579 -3.20399 0.645579 -2.98879C0.645579 -2.76164 0.848817 -2.76164 1.02814 -2.76164H4.32777V0.537983C4.32777 0.705355 4.32777 0.920548 4.54296 0.920548C4.77011 0.920548 4.77011 0.71731 4.77011 0.537983V-2.76164Z' id='g6-43'/>
<path d='M3.44309 -7.66326C3.44309 -7.93823 3.44309 -7.95019 3.20399 -7.95019C2.91706 -7.6274 2.3193 -7.18506 1.08792 -7.18506V-6.83836C1.36289 -6.83836 1.96065 -6.83836 2.61818 -7.14919V-0.920548C2.61818 -0.490162 2.58232 -0.3467 1.53026 -0.3467H1.15965V0C1.48244 -0.0239103 2.64209 -0.0239103 3.03661 -0.0239103S4.57883 -0.0239103 4.90162 0V-0.3467H4.53101C3.47895 -0.3467 3.44309 -0.490162 3.44309 -0.920548V-7.66326Z' id='g6-49'/>
<path d='M8.06974 -3.87347C8.23711 -3.87347 8.4523 -3.87347 8.4523 -4.08867C8.4523 -4.31582 8.24907 -4.31582 8.06974 -4.31582H1.02814C0.860772 -4.31582 0.645579 -4.31582 0.645579 -4.10062C0.645579 -3.87347 0.848817 -3.87347 1.02814 -3.87347H8.06974ZM8.06974 -1.64981C8.23711 -1.64981 8.4523 -1.64981 8.4523 -1.86501C8.4523 -2.09215 8.24907 -2.09215 8.06974 -2.09215H1.02814C0.860772 -2.09215 0.645579 -2.09215 0.645579 -1.87696C0.645579 -1.64981 0.848817 -1.64981 1.02814 -1.64981H8.06974Z' id='g6-61'/>
<path d='M1.42267 -2.16389C1.98456 -1.79328 2.46276 -1.79328 2.59427 -1.79328C3.67024 -1.79328 4.47123 -2.60623 4.47123 -3.52677C4.47123 -3.84956 4.37559 -4.30386 3.99303 -4.68643C4.45928 -5.16463 5.02117 -5.16463 5.08095 -5.16463C5.12877 -5.16463 5.18854 -5.16463 5.23636 -5.14072C5.11681 -5.0929 5.05704 -4.97335 5.05704 -4.84184C5.05704 -4.67447 5.17659 -4.53101 5.36787 -4.53101C5.46351 -4.53101 5.6787 -4.59078 5.6787 -4.8538C5.6787 -5.06899 5.51133 -5.40374 5.0929 -5.40374C4.47123 -5.40374 4.00498 -5.02117 3.83761 -4.84184C3.47895 -5.11681 3.06052 -5.27223 2.60623 -5.27223C1.53026 -5.27223 0.729265 -4.45928 0.729265 -3.53873C0.729265 -2.85729 1.1477 -2.41494 1.26725 -2.30735C1.12379 -2.12802 0.908593 -1.78132 0.908593 -1.31507C0.908593 -0.621669 1.32702 -0.32279 1.42267 -0.263014C0.872727 -0.107597 0.32279 0.32279 0.32279 0.944458C0.32279 1.76936 1.44658 2.45081 2.91706 2.45081C4.33973 2.45081 5.52329 1.81719 5.52329 0.920548C5.52329 0.621669 5.4396 -0.0836862 4.72229 -0.454296C4.11258 -0.765131 3.51482 -0.765131 2.48667 -0.765131C1.75741 -0.765131 1.67372 -0.765131 1.45853 -0.992279C1.33898 -1.11183 1.23138 -1.33898 1.23138 -1.59004C1.23138 -1.79328 1.30311 -1.99651 1.42267 -2.16389ZM2.60623 -2.04433C1.55417 -2.04433 1.55417 -3.25181 1.55417 -3.52677C1.55417 -3.74197 1.55417 -4.23213 1.75741 -4.55492C1.98456 -4.90162 2.34321 -5.02117 2.59427 -5.02117C3.64633 -5.02117 3.64633 -3.8137 3.64633 -3.53873C3.64633 -3.32354 3.64633 -2.83337 3.44309 -2.51059C3.21594 -2.16389 2.85729 -2.04433 2.60623 -2.04433ZM2.92902 2.19975C1.78132 2.19975 0.908593 1.61395 0.908593 0.932503C0.908593 0.836862 0.932503 0.37061 1.3868 0.0597758C1.64981 -0.107597 1.75741 -0.107597 2.59427 -0.107597C3.58655 -0.107597 4.93748 -0.107597 4.93748 0.932503C4.93748 1.63786 4.02889 2.19975 2.92902 2.19975Z' id='g6-103'/>
<path d='M2.05629 -8.29689L0.394521 -8.16538V-7.81868C1.20747 -7.81868 1.30311 -7.73499 1.30311 -7.14919V-0.884682C1.30311 -0.3467 1.17161 -0.3467 0.394521 -0.3467V0C0.729265 -0.0239103 1.31507 -0.0239103 1.67372 -0.0239103S2.63014 -0.0239103 2.96488 0V-0.3467C2.19975 -0.3467 2.05629 -0.3467 2.05629 -0.884682V-8.29689Z' id='g6-108'/>
<path d='M5.48742 -2.55841C5.48742 -4.10062 4.31582 -5.332 2.92902 -5.332C1.4944 -5.332 0.358655 -4.06476 0.358655 -2.55841C0.358655 -1.02814 1.55417 0.119552 2.91706 0.119552C4.32777 0.119552 5.48742 -1.05205 5.48742 -2.55841ZM2.92902 -0.143462C2.48667 -0.143462 1.94869 -0.334745 1.60199 -0.920548C1.2792 -1.45853 1.26725 -2.16389 1.26725 -2.666C1.26725 -3.1203 1.26725 -3.84956 1.63786 -4.38755C1.9726 -4.90162 2.49863 -5.0929 2.91706 -5.0929C3.38331 -5.0929 3.88543 -4.87771 4.20822 -4.41146C4.57883 -3.86152 4.57883 -3.10834 4.57883 -2.666C4.57883 -2.24757 4.57883 -1.50635 4.268 -0.944458C3.93325 -0.37061 3.38331 -0.143462 2.92902 -0.143462Z' id='g6-111'/>
</defs>
<g id='page1' transform='matrix(1.13 0 0 1.13 -63.986 -61.0552)'>
<use x='56.4133' xlink:href='#g4-114' y='70.1882'/>
<use x='61.994' xlink:href='#g4-101' y='70.1882'/>
<use x='67.3992' xlink:href='#g4-108' y='70.1882'/>
<use x='71.136' xlink:href='#g4-101' y='70.1882'/>
<use x='76.5412' xlink:href='#g4-118' y='70.1882'/>
<use x='82.6082' xlink:href='#g4-97' y='70.1882'/>
<use x='88.7302' xlink:href='#g4-110' y='70.1882'/>
<use x='95.6917' xlink:href='#g4-99' y='70.1882'/>
<use x='100.711' xlink:href='#g4-101' y='70.1882'/>
<use x='106.116' xlink:href='#g6-40' y='70.1882'/>
<use x='110.651' xlink:href='#g4-102' y='70.1882'/>
<use x='117.026' xlink:href='#g4-59' y='70.1882'/>
<use x='122.258' xlink:href='#g4-100' y='70.1882'/>
<use x='128.318' xlink:href='#g6-41' y='70.1882'/>
<use x='136.174' xlink:href='#g6-61' y='70.1882'/>
<use x='173.662' xlink:href='#g0-88' y='58.8307'/>
<use x='148.566' xlink:href='#g1-56' y='84.7337'/>
<use x='153.253' xlink:href='#g3-119' y='84.7337'/>
<use x='159.521' xlink:href='#g1-50' y='84.7337'/>
<use x='165.146' xlink:href='#g3-102' y='84.7337'/>
<use x='170.077' xlink:href='#g1-106' y='84.7337'/>
<use x='172.421' xlink:href='#g3-115' y='84.7337'/>
<use x='176.322' xlink:href='#g3-105' y='84.7337'/>
<use x='179.194' xlink:href='#g3-109' y='84.7337'/>
<use x='186.657' xlink:href='#g5-40' y='84.7337'/>
<use x='189.938' xlink:href='#g3-119' y='84.7337'/>
<use x='196.207' xlink:href='#g3-59' y='84.7337'/>
<use x='198.55' xlink:href='#g3-100' y='84.7337'/>
<use x='202.891' xlink:href='#g5-41' y='84.7337'/>
<use x='206.172' xlink:href='#g1-21' y='84.7337'/>
<use x='212.734' xlink:href='#g3-116' y='84.7337'/>
<use x='218.02' xlink:href='#g4-115' y='70.1882'/>
<use x='223.514' xlink:href='#g4-105' y='70.1882'/>
<use x='227.492' xlink:href='#g4-109' y='70.1882'/>
<use x='237.693' xlink:href='#g6-40' y='70.1882'/>
<use x='242.228' xlink:href='#g4-119' y='70.1882'/>
<use x='250.887' xlink:href='#g4-59' y='70.1882'/>
<use x='256.119' xlink:href='#g4-100' y='70.1882'/>
<use x='262.179' xlink:href='#g6-41' y='70.1882'/>
<use x='269.371' xlink:href='#g2-1' y='70.1882'/>
<use x='275.336' xlink:href='#g4-116' y='70.1882'/>
<use x='279.547' xlink:href='#g4-102' y='70.1882'/>
<use x='286.572' xlink:href='#g6-40' y='70.1882'/>
<use x='291.107' xlink:href='#g4-119' y='70.1882'/>
<use x='299.766' xlink:href='#g4-59' y='70.1882'/>
<use x='304.998' xlink:href='#g4-102' y='70.1882'/>
<use x='312.023' xlink:href='#g6-41' y='70.1882'/>
<use x='319.215' xlink:href='#g2-1' y='70.1882'/>
<use x='325.18' xlink:href='#g6-40' y='70.1882'/>
<use x='329.715' xlink:href='#g6-49' y='70.1882'/>
<use x='338.203' xlink:href='#g6-43' y='70.1882'/>
<use x='349.93' xlink:href='#g6-108' y='70.1882'/>
<use x='353.17' xlink:href='#g6-111' y='70.1882'/>
<use x='359.001' xlink:href='#g6-103' y='70.1882'/>
<use x='368.238' xlink:href='#g6-35' y='62.1004'/>
<use x='377.957' xlink:href='#g4-100' y='62.1004'/>
<use x='384.017' xlink:href='#g4-111' y='62.1004'/>
<use x='389.623' xlink:href='#g4-99' y='62.1004'/>
<use x='394.642' xlink:href='#g4-115' y='62.1004'/>
<rect height='0.478187' width='32.0171' x='368.238' y='66.9603'/>
<use x='369.761' xlink:href='#g4-100' y='78.3889'/>
<use x='373.87' xlink:href='#g4-102' y='78.3889'/>
<use x='380.895' xlink:href='#g6-40' y='78.3889'/>
<use x='385.43' xlink:href='#g4-119' y='78.3889'/>
<use x='394.088' xlink:href='#g6-41' y='78.3889'/>
<use x='401.451' xlink:href='#g6-41' y='70.1882'/>
</g>
</svg>
