[
    "aa",
    "ab",
    "ad",
    "ag",
    "ah",
    "ai",
    "am",
    "an",
    "as",
    "at",
    "aw",
    "ax",
    "ay",
    "ba",
    "be",
    "bi",
    "bo",
    "by",
    "da",
    "do",
    "dy",
    "ee",
    "eh",
    "el",
    "em",
    "en",
    "er",
    "ex",
    "fa",
    "ga",
    "gi",
    "go",
    "ha",
    "he",
    "hi",
    "ho",
    "id",
    "if",
    "in",
    "io",
    "is",
    "it",
    "ja",
    "jo",
    "ju",
    "ka",
    "ki",
    "la",
    "li",
    "lo",
    "ma",
    "me",
    "mi",
    "mo",
    "mu",
    "my",
    "né",
    "no",
    "nu",
    "ob",
    "od",
    "of",
    "og",
    "oh",
    "oi",
    "ok",
    "om",
    "on",
    "op",
    "or",
    "os",
    "ou",
    "ow",
    "ox",
    "oy",
    "oz",
    "pa",
    "pi",
    "po",
    "qi",
    "ra",
    "re",
    "ri",
    "se",
    "si",
    "so",
    "ta",
    "te",
    "ti",
    "to",
    "uh",
    "um",
    "up",
    "us",
    "wa",
    "we",
    "wu",
    "xi",
    "xu",
    "ye",
    "yi",
    "yo",
    "yu",
    "gb",
    "gr",
    "kb",
    "cm",
    "kg",
    "kl",
    "km",
    "mb",
    "µg",
    "mg",
    "ml",
    "mm",
    "kw"
]
