{
    "batch_size": 512,
    "domain_words": null,
    "elapsed_millis": 2232393,
    "embedding_size": 128,
    "execution_id": "14-04-2018_21h-35m",
    "learning_rate": 1,
    "loss_fun": "nce",
    "negative_samples": 64,
    "num_steps": 1000000,
    "optimizer_fun": "adagrad",
    "step_avgloss_correct_total_accuracy": [
        [
            0,
            Infinity,
            0,
            18594,
            0.0
        ],
        [
            10000,
            77.16791666569709,
            0,
            18594,
            0.0
        ],
        [
            20000,
            50.32190222609043,
            0,
            18594,
            0.0
        ],
        [
            30000,
            37.73827806567351,
            1,
            18594,
            0.005378078950198989
        ],
        [
            40000,
            30.47817174563408,
            11,
            18594,
            0.05915886845218888
        ],
        [
            50000,
            25.76510419037342,
            39,
            18594,
            0.20974507905776058
        ],
        [
            60000,
            22.501753449598947,
            62,
            18594,
            0.3334408949123373
        ],
        [
            70000,
            20.105425994263378,
            100,
            18594,
            0.5378078950198989
        ],
        [
            80000,
            18.27783863686919,
            152,
            18594,
            0.8174680004302464
        ],
        [
            90000,
            16.836844932964112,
            184,
            18594,
            0.989566526836614
        ],
        [
            100000,
            15.67453492423296,
            225,
            18594,
            1.2100677637947725
        ],
        [
            110000,
            14.715724595499038,
            266,
            18594,
            1.430569000752931
        ],
        [
            120000,
            13.914107332462072,
            317,
            18594,
            1.7048510272130795
        ],
        [
            130000,
            13.230715970259446,
            351,
            18594,
            1.887705711519845
        ],
        [
            140000,
            12.642716406123979,
            401,
            18594,
            2.1566096590297947
        ],
        [
            150000,
            12.131054540948869,
            437,
            18594,
            2.3502205012369584
        ],
        [
            160000,
            11.68195864430219,
            489,
            18594,
            2.6298806066473057
        ],
        [
            170000,
            11.284063678201507,
            552,
            18594,
            2.968699580509842
        ],
        [
            180000,
            10.929101039501031,
            606,
            18594,
            3.259115843820587
        ],
        [
            190000,
            10.610972230065496,
            659,
            18594,
            3.5441540281811337
        ],
        [
            200000,
            10.323959958459138,
            711,
            18594,
            3.823814133591481
        ],
        [
            210000,
            10.063701254786764,
            753,
            18594,
            4.049693449499839
        ],
        [
            220000,
            9.826502219696478,
            817,
            18594,
            4.393890502312574
        ],
        [
            230000,
            9.609306095109815,
            909,
            18594,
            4.888673765730881
        ],
        [
            240000,
            9.410028823765119,
            939,
            18594,
            5.05001613423685
        ],
        [
            250000,
            9.226071700277329,
            975,
            18594,
            5.243626976444014
        ],
        [
            260000,
            9.05589101601564,
            1020,
            18594,
            5.485640529202969
        ],
        [
            270000,
            8.89819026213487,
            1053,
            18594,
            5.663117134559536
        ],
        [
            280000,
            8.751444362516063,
            1074,
            18594,
            5.776056792513714
        ],
        [
            290000,
            8.61448361752691,
            1116,
            18594,
            6.001936108422072
        ],
        [
            300000,
            8.486455528348287,
            1188,
            18594,
            6.389157792836399
        ],
        [
            310000,
            8.366529640290814,
            1270,
            18594,
            6.830160266752716
        ],
        [
            320000,
            8.253830005936324,
            1303,
            18594,
            7.007636872109282
        ],
        [
            330000,
            8.147769851427368,
            1355,
            18594,
            7.28729697751963
        ],
        [
            340000,
            8.047780134005407,
            1394,
            18594,
            7.49704205657739
        ],
        [
            350000,
            7.953376967840195,
            1396,
            18594,
            7.507798214477789
        ],
        [
            360000,
            7.8640067227886785,
            1490,
            18594,
            8.013337635796493
        ],
        [
            370000,
            7.779383383883657,
            1528,
            18594,
            8.217704635904054
        ],
        [
            380000,
            7.699163135836626,
            1571,
            18594,
            8.448962030762612
        ],
        [
            390000,
            7.62284225433912,
            1602,
            18594,
            8.61568247821878
        ],
        [
            400000,
            7.550280228532553,
            1677,
            18594,
            9.019038399483705
        ],
        [
            410000,
            7.481149629626623,
            1726,
            18594,
            9.282564268043455
        ],
        [
            420000,
            7.415067725047611,
            1794,
            18594,
            9.648273636656986
        ],
        [
            430000,
            7.352000545268835,
            1790,
            18594,
            9.62676132085619
        ],
        [
            440000,
            7.2917833561886445,
            1851,
            18594,
            9.954824136818328
        ],
        [
            450000,
            7.233983921576076,
            1882,
            18594,
            10.121544584274497
        ],
        [
            460000,
            7.178704831376801,
            1866,
            18594,
            10.035495321071313
        ],
        [
            470000,
            7.125749573873966,
            1899,
            18594,
            10.21297192642788
        ],
        [
            480000,
            7.074944769071043,
            1958,
            18594,
            10.53027858448962
        ],
        [
            490000,
            7.026116046784849,
            2000,
            18594,
            10.756157900397978
        ],
        [
            500000,
            6.979086917453289,
            2040,
            18594,
            10.971281058405937
        ],
        [
            510000,
            6.9339051381429035,
            2108,
            18594,
            11.336990427019469
        ],
        [
            520000,
            6.890444224473834,
            2136,
            18594,
            11.48757663762504
        ],
        [
            530000,
            6.848534830477328,
            2174,
            18594,
            11.691943637732601
        ],
        [
            540000,
            6.808040004263763,
            2205,
            18594,
            11.85866408518877
        ],
        [
            550000,
            6.768991274391304,
            2231,
            18594,
            11.998494137893944
        ],
        [
            560000,
            6.73132399374949,
            2253,
            18594,
            12.116811874798323
        ],
        [
            570000,
            6.69495665714929,
            2289,
            18594,
            12.310422717005485
        ],
        [
            580000,
            6.659580120326939,
            2337,
            18594,
            12.568570506615037
        ],
        [
            590000,
            6.625507427909213,
            2363,
            18594,
            12.70840055932021
        ],
        [
            600000,
            6.592570548118552,
            2412,
            18594,
            12.97192642787996
        ],
        [
            610000,
            6.560581963306763,
            2414,
            18594,
            12.98268258578036
        ],
        [
            620000,
            6.529542379394846,
            2448,
            18594,
            13.165537270087125
        ],
        [
            630000,
            6.499522182127597,
            2453,
            18594,
            13.19242766483812
        ],
        [
            640000,
            6.4703111862527205,
            2500,
            18594,
            13.445197375497472
        ],
        [
            650000,
            6.441961602827402,
            2481,
            18594,
            13.343013875443692
        ],
        [
            660000,
            6.4145494535469645,
            2543,
            18594,
            13.67645477035603
        ],
        [
            670000,
            6.387889603068757,
            2574,
            18594,
            13.843175217812197
        ],
        [
            680000,
            6.3619655620569695,
            2570,
            18594,
            13.821662902011402
        ],
        [
            690000,
            6.336766984725517,
            2591,
            18594,
            13.93460255996558
        ],
        [
            700000,
            6.312252015221289,
            2625,
            18594,
            14.117457244272346
        ],
        [
            710000,
            6.288408694922588,
            2659,
            18594,
            14.300311928579111
        ],
        [
            720000,
            6.265164036496646,
            2701,
            18594,
            14.52619124448747
        ],
        [
            730000,
            6.242503474265419,
            2705,
            18594,
            14.547703560288266
        ],
        [
            740000,
            6.22052748511337,
            2716,
            18594,
            14.606862428740454
        ],
        [
            750000,
            6.19906825807778,
            2699,
            18594,
            14.515435086587072
        ],
        [
            760000,
            6.178158056922806,
            2757,
            18594,
            14.827363665698613
        ],
        [
            770000,
            6.157766662769967,
            2802,
            18594,
            15.069377218457568
        ],
        [
            780000,
            6.137833953672036,
            2833,
            18594,
            15.236097665913736
        ],
        [
            790000,
            6.118366203298599,
            2875,
            18594,
            15.461976981822094
        ],
        [
            800000,
            6.099356054583639,
            2906,
            18594,
            15.628697429278262
        ],
        [
            810000,
            6.080859225558793,
            2921,
            18594,
            15.709368613531247
        ],
        [
            820000,
            6.062741531334709,
            2934,
            18594,
            15.779283639883834
        ],
        [
            830000,
            6.045053563089399,
            2944,
            18594,
            15.833064429385823
        ],
        [
            840000,
            6.027762551931682,
            2981,
            18594,
            16.032053350543187
        ],
        [
            850000,
            6.010906009578004,
            3002,
            18594,
            16.144993008497366
        ],
        [
            860000,
            5.994376951829639,
            3025,
            18594,
            16.26868882435194
        ],
        [
            870000,
            5.978253075371803,
            3018,
            18594,
            16.23104227170055
        ],
        [
            880000,
            5.962439784985239,
            3050,
            18594,
            16.403140798106918
        ],
        [
            890000,
            5.946979930550061,
            3048,
            18594,
            16.39238464020652
        ],
        [
            900000,
            5.931849136296378,
            3072,
            18594,
            16.521458535011295
        ],
        [
            910000,
            5.917020772378785,
            3113,
            18594,
            16.74195977196945
        ],
        [
            920000,
            5.9025051957226315,
            3153,
            18594,
            16.95708292997741
        ],
        [
            930000,
            5.888279951839549,
            3181,
            18594,
            17.107669140582985
        ],
        [
            940000,
            5.874366085917392,
            3175,
            18594,
            17.07540066688179
        ],
        [
            950000,
            5.860716588856295,
            3212,
            18594,
            17.274389588039153
        ],
        [
            960000,
            5.847339933197449,
            3204,
            18594,
            17.23136495643756
        ],
        [
            970000,
            5.8342105221748355,
            3192,
            18594,
            17.16682800903517
        ],
        [
            980000,
            5.821379941586086,
            3219,
            18594,
            17.312036140690545
        ],
        [
            990000,
            5.808654023223453,
            3217,
            18594,
            17.30127998279015
        ],
        [
            999999,
            5.796283260465637,
            3259,
            18594,
            17.527159298698503
        ]
    ],
    "summary_freq": 10000,
    "vocabulary_size": 100000,
    "window_distribution:": [
        0.0,
        0.10955809103879423,
        0.26034658405381605,
        0.445392104381975,
        0.6444509995208586,
        0.825788909260064,
        0.9537455872326677,
        1.0,
        0.9537455872326677,
        0.825788909260064,
        0.6444509995208586,
        0.445392104381975,
        0.26034658405381605,
        0.10955809103879423,
        0.0
    ],
    "window_size": 7
}